Running DABOM • DABOM
…
Finally, we’ll need to know the origin (hatchery or wild/naturally produced) of each tag. This involves constructing a tibble with two columns: tag_code and origin. The user might be able to do this based on data taken when tagging the fish, or it could be constructed from the PTAGIS file:

fish_origin = suppressMessages(read_csv(ptagis_file)) %>%
  select(tag_code = `Tag Code`,
         origin = `Mark Rear Type Name`) %>%
  distinct() %>%
  mutate(origin = str_sub(origin, 1, 1),
         origin = recode(origin,
                         "U" = "W"))

fish_origin
#> # A tibble: 2,019 x 2
#>    tag_code       origin
#>    <chr>          <chr> 
#>  1 384.3B239AD241 W     
#>  2 3D9.1BF24B20F5 W     
#>  3 3D9.1C2D76FB78 W     
#>  4 3D9.1C2D770193 W     
#>  5 3D9.1C2D91B3DE W     
#>  6 3D9.1C2D925C52 W     
#>  7 3D9.1C2D929849 W     
#>  8 3D9.1C2D93282A W     
#>  9 3D9.1C2DB9A65E H     
#> 10 3D9.1C2DC026E4 H     
#> # … with 2,009 more rows
…
